<svg width="101" height="101" viewBox="0 0 101 101" fill="none" xmlns="http://www.w3.org/2000/svg">
<path d="M71.5417 88.375V79.9583C71.5417 75.4939 69.7682 71.2122 66.6113 68.0554C63.4544 64.8985 59.1728 63.125 54.7083 63.125H21.0417C16.5772 63.125 12.2956 64.8985 9.1387 68.0554C5.98184 71.2122 4.20833 75.4939 4.20833 79.9583V88.375" stroke="#D9D9D9" stroke-width="2" stroke-linecap="round" stroke-linejoin="round"/>
<path d="M37.875 46.2917C47.1718 46.2917 54.7083 38.7551 54.7083 29.4583C54.7083 20.1615 47.1718 12.625 37.875 12.625C28.5782 12.625 21.0417 20.1615 21.0417 29.4583C21.0417 38.7551 28.5782 46.2917 37.875 46.2917Z" stroke="#D9D9D9" stroke-width="2" stroke-linecap="round" stroke-linejoin="round"/>
<path d="M96.7917 88.375V79.9583C96.7889 76.2286 95.5475 72.6054 93.2624 69.6577C90.9773 66.7099 87.778 64.6045 84.1667 63.6721" stroke="#D9D9D9" stroke-width="2" stroke-linecap="round" stroke-linejoin="round"/>
<path d="M67.3333 13.1721C70.9543 14.0992 74.1636 16.205 76.4555 19.1577C78.7473 22.1103 79.9913 25.7417 79.9913 29.4794C79.9913 33.2171 78.7473 36.8485 76.4555 39.8011C74.1636 42.7537 70.9543 44.8596 67.3333 45.7867" stroke="#D9D9D9" stroke-width="2" stroke-linecap="round" stroke-linejoin="round"/>
</svg>
